%YAML 1.1
%TAG !u! tag:unity3d.com,2011:
--- !u!114 &11400000
MonoBehaviour:
  m_ObjectHideFlags: 0
  m_CorrespondingSourceObject: {fileID: 0}
  m_PrefabInternal: {fileID: 0}
  m_GameObject: {fileID: 0}
  m_Enabled: 1
  m_EditorHideFlags: 0
  m_Script: {fileID: 11500000, guid: 2f67bd8ec6e33af4987562f6141a3bf2, type: 3}
  m_Name: Fish
  m_EditorClassIdentifier: 
  sprite: {fileID: 21300000, guid: 741b6eb3ed1c5d24482e517a0841dce3, type: 3}
  model: {fileID: 100028, guid: ae23c9eafd0c4d84690e5f3bddaf54e8, type: 3}
  descriptions: 'Yuck! ...

    Hate the smell of fish.'
