%YAML 1.1
%TAG !u! tag:unity3d.com,2011:
--- !u!1001 &100100000
Prefab:
  m_ObjectHideFlags: 1
  serializedVersion: 2
  m_Modification:
    m_TransformParent: {fileID: 0}
    m_Modifications: []
    m_RemovedComponents: []
  m_SourcePrefab: {fileID: 0}
  m_RootGameObject: {fileID: 1242137142921788}
  m_IsPrefabAsset: 1
--- !u!1 &1242137142921788
GameObject:
  m_ObjectHideFlags: 0
  m_CorrespondingSourceObject: {fileID: 0}
  m_PrefabInternal: {fileID: 100100000}
  serializedVersion: 6
  m_Component:
  - component: {fileID: 4304053726073690}
  - component: {fileID: 2569400266517038364}
  m_Layer: 31
  m_Name: Outside
  m_TagString: Untagged
  m_Icon: {fileID: 0}
  m_NavMeshLayer: 0
  m_StaticEditorFlags: 0
  m_IsActive: 1
--- !u!1 &1985472044610148
GameObject:
  m_ObjectHideFlags: 0
  m_CorrespondingSourceObject: {fileID: 0}
  m_PrefabInternal: {fileID: 100100000}
  serializedVersion: 6
  m_Component:
  - component: {fileID: 4387635846721182}
  - component: {fileID: 8195094280250600004}
  - component: {fileID: 3664157345273870720}
  m_Layer: 31
  m_Name: Layer1
  m_TagString: Untagged
  m_Icon: {fileID: 0}
  m_NavMeshLayer: 0
  m_StaticEditorFlags: 0
  m_IsActive: 1
--- !u!4 &4304053726073690
Transform:
  m_ObjectHideFlags: 1
  m_CorrespondingSourceObject: {fileID: 0}
  m_PrefabInternal: {fileID: 100100000}
  m_GameObject: {fileID: 1242137142921788}
  m_LocalRotation: {x: 0, y: 0, z: 0, w: 1}
  m_LocalPosition: {x: 0, y: 0, z: 0}
  m_LocalScale: {x: 1, y: 1, z: 1}
  m_Children:
  - {fileID: 4387635846721182}
  m_Father: {fileID: 0}
  m_RootOrder: 0
  m_LocalEulerAnglesHint: {x: 0, y: 0, z: 0}
--- !u!4 &4387635846721182
Transform:
  m_ObjectHideFlags: 1
  m_CorrespondingSourceObject: {fileID: 0}
  m_PrefabInternal: {fileID: 100100000}
  m_GameObject: {fileID: 1985472044610148}
  m_LocalRotation: {x: -0, y: -0, z: -0, w: 1}
  m_LocalPosition: {x: 0, y: 0, z: 0}
  m_LocalScale: {x: 1, y: 1, z: 1}
  m_Children: []
  m_Father: {fileID: 4304053726073690}
  m_RootOrder: 0
  m_LocalEulerAnglesHint: {x: 0, y: 0, z: 0}
--- !u!114 &114135500755290092
MonoBehaviour:
  m_ObjectHideFlags: 0
  m_CorrespondingSourceObject: {fileID: 0}
  m_PrefabInternal: {fileID: 0}
  m_GameObject: {fileID: 0}
  m_Enabled: 1
  m_EditorHideFlags: 1
  m_Script: {fileID: 12395, guid: 0000000000000000e000000000000000, type: 0}
  m_Name: Palette Settings
  m_EditorClassIdentifier: 
  cellSizing: 0
--- !u!156049354 &2569400266517038364
Grid:
  m_ObjectHideFlags: 1
  m_CorrespondingSourceObject: {fileID: 0}
  m_PrefabInternal: {fileID: 100100000}
  m_GameObject: {fileID: 1242137142921788}
  m_Enabled: 1
  m_CellSize: {x: 1, y: 1, z: 0}
  m_CellGap: {x: 0, y: 0, z: 0}
  m_CellLayout: 0
  m_CellSwizzle: 0
--- !u!483693784 &3664157345273870720
TilemapRenderer:
  m_ObjectHideFlags: 1
  m_CorrespondingSourceObject: {fileID: 0}
  m_PrefabInternal: {fileID: 100100000}
  m_GameObject: {fileID: 1985472044610148}
  m_Enabled: 0
  m_CastShadows: 0
  m_ReceiveShadows: 0
  m_DynamicOccludee: 0
  m_MotionVectors: 1
  m_LightProbeUsage: 0
  m_ReflectionProbeUsage: 0
  m_RenderingLayerMask: 4294967295
  m_Materials:
  - {fileID: 10754, guid: 0000000000000000f000000000000000, type: 0}
  m_StaticBatchInfo:
    firstSubMesh: 0
    subMeshCount: 0
  m_StaticBatchRoot: {fileID: 0}
  m_ProbeAnchor: {fileID: 0}
  m_LightProbeVolumeOverride: {fileID: 0}
  m_ScaleInLightmap: 1
  m_PreserveUVs: 0
  m_IgnoreNormalsForChartDetection: 0
  m_ImportantGI: 0
  m_StitchLightmapSeams: 0
  m_SelectedEditorRenderState: 0
  m_MinimumChartSize: 4
  m_AutoUVMaxDistance: 0.5
  m_AutoUVMaxAngle: 89
  m_LightmapParameters: {fileID: 0}
  m_SortingLayerID: 0
  m_SortingLayer: 0
  m_SortingOrder: 0
  m_ChunkSize: {x: 32, y: 32, z: 32}
  m_ChunkCullingBounds: {x: 0, y: 0, z: 0}
  m_MaxChunkCount: 16
  m_MaxFrameAge: 16
  m_SortOrder: 0
  m_DetectChunkCullingBounds: 0
  m_MaskInteraction: 0
--- !u!1839735485 &8195094280250600004
Tilemap:
  m_ObjectHideFlags: 1
  m_CorrespondingSourceObject: {fileID: 0}
  m_PrefabInternal: {fileID: 100100000}
  m_GameObject: {fileID: 1985472044610148}
  m_Enabled: 1
  m_Tiles:
  - first: {x: 0, y: -9, z: 0}
    second:
      m_TileIndex: 64
      m_TileSpriteIndex: 64
      m_TileMatrixIndex: 0
      m_TileColorIndex: 0
      m_ObjectToInstantiate: {fileID: 0}
      m_TileFlags: 1
      m_ColliderType: 1
  - first: {x: 1, y: -9, z: 0}
    second:
      m_TileIndex: 65
      m_TileSpriteIndex: 65
      m_TileMatrixIndex: 0
      m_TileColorIndex: 0
      m_ObjectToInstantiate: {fileID: 0}
      m_TileFlags: 1
      m_ColliderType: 1
  - first: {x: 2, y: -9, z: 0}
    second:
      m_TileIndex: 66
      m_TileSpriteIndex: 66
      m_TileMatrixIndex: 0
      m_TileColorIndex: 0
      m_ObjectToInstantiate: {fileID: 0}
      m_TileFlags: 1
      m_ColliderType: 1
  - first: {x: 3, y: -9, z: 0}
    second:
      m_TileIndex: 67
      m_TileSpriteIndex: 67
      m_TileMatrixIndex: 0
      m_TileColorIndex: 0
      m_ObjectToInstantiate: {fileID: 0}
      m_TileFlags: 1
      m_ColliderType: 1
  - first: {x: 4, y: -9, z: 0}
    second:
      m_TileIndex: 68
      m_TileSpriteIndex: 68
      m_TileMatrixIndex: 0
      m_TileColorIndex: 0
      m_ObjectToInstantiate: {fileID: 0}
      m_TileFlags: 1
      m_ColliderType: 1
  - first: {x: 0, y: -8, z: 0}
    second:
      m_TileIndex: 58
      m_TileSpriteIndex: 58
      m_TileMatrixIndex: 0
      m_TileColorIndex: 0
      m_ObjectToInstantiate: {fileID: 0}
      m_TileFlags: 1
      m_ColliderType: 1
  - first: {x: 1, y: -8, z: 0}
    second:
      m_TileIndex: 59
      m_TileSpriteIndex: 59
      m_TileMatrixIndex: 0
      m_TileColorIndex: 0
      m_ObjectToInstantiate: {fileID: 0}
      m_TileFlags: 1
      m_ColliderType: 1
  - first: {x: 2, y: -8, z: 0}
    second:
      m_TileIndex: 60
      m_TileSpriteIndex: 60
      m_TileMatrixIndex: 0
      m_TileColorIndex: 0
      m_ObjectToInstantiate: {fileID: 0}
      m_TileFlags: 1
      m_ColliderType: 1
  - first: {x: 3, y: -8, z: 0}
    second:
      m_TileIndex: 61
      m_TileSpriteIndex: 61
      m_TileMatrixIndex: 0
      m_TileColorIndex: 0
      m_ObjectToInstantiate: {fileID: 0}
      m_TileFlags: 1
      m_ColliderType: 1
  - first: {x: 4, y: -8, z: 0}
    second:
      m_TileIndex: 62
      m_TileSpriteIndex: 62
      m_TileMatrixIndex: 0
      m_TileColorIndex: 0
      m_ObjectToInstantiate: {fileID: 0}
      m_TileFlags: 1
      m_ColliderType: 1
  - first: {x: 5, y: -8, z: 0}
    second:
      m_TileIndex: 63
      m_TileSpriteIndex: 63
      m_TileMatrixIndex: 0
      m_TileColorIndex: 0
      m_ObjectToInstantiate: {fileID: 0}
      m_TileFlags: 1
      m_ColliderType: 1
  - first: {x: 0, y: -7, z: 0}
    second:
      m_TileIndex: 52
      m_TileSpriteIndex: 52
      m_TileMatrixIndex: 0
      m_TileColorIndex: 0
      m_ObjectToInstantiate: {fileID: 0}
      m_TileFlags: 1
      m_ColliderType: 1
  - first: {x: 1, y: -7, z: 0}
    second:
      m_TileIndex: 53
      m_TileSpriteIndex: 53
      m_TileMatrixIndex: 0
      m_TileColorIndex: 0
      m_ObjectToInstantiate: {fileID: 0}
      m_TileFlags: 1
      m_ColliderType: 1
  - first: {x: 2, y: -7, z: 0}
    second:
      m_TileIndex: 54
      m_TileSpriteIndex: 54
      m_TileMatrixIndex: 0
      m_TileColorIndex: 0
      m_ObjectToInstantiate: {fileID: 0}
      m_TileFlags: 1
      m_ColliderType: 1
  - first: {x: 3, y: -7, z: 0}
    second:
      m_TileIndex: 55
      m_TileSpriteIndex: 55
      m_TileMatrixIndex: 0
      m_TileColorIndex: 0
      m_ObjectToInstantiate: {fileID: 0}
      m_TileFlags: 1
      m_ColliderType: 1
  - first: {x: 4, y: -7, z: 0}
    second:
      m_TileIndex: 56
      m_TileSpriteIndex: 56
      m_TileMatrixIndex: 0
      m_TileColorIndex: 0
      m_ObjectToInstantiate: {fileID: 0}
      m_TileFlags: 1
      m_ColliderType: 1
  - first: {x: 5, y: -7, z: 0}
    second:
      m_TileIndex: 57
      m_TileSpriteIndex: 57
      m_TileMatrixIndex: 0
      m_TileColorIndex: 0
      m_ObjectToInstantiate: {fileID: 0}
      m_TileFlags: 1
      m_ColliderType: 1
  - first: {x: 0, y: -6, z: 0}
    second:
      m_TileIndex: 48
      m_TileSpriteIndex: 48
      m_TileMatrixIndex: 0
      m_TileColorIndex: 0
      m_ObjectToInstantiate: {fileID: 0}
      m_TileFlags: 1
      m_ColliderType: 1
  - first: {x: 1, y: -6, z: 0}
    second:
      m_TileIndex: 49
      m_TileSpriteIndex: 49
      m_TileMatrixIndex: 0
      m_TileColorIndex: 0
      m_ObjectToInstantiate: {fileID: 0}
      m_TileFlags: 1
      m_ColliderType: 1
  - first: {x: 4, y: -6, z: 0}
    second:
      m_TileIndex: 50
      m_TileSpriteIndex: 50
      m_TileMatrixIndex: 0
      m_TileColorIndex: 0
      m_ObjectToInstantiate: {fileID: 0}
      m_TileFlags: 1
      m_ColliderType: 1
  - first: {x: 5, y: -6, z: 0}
    second:
      m_TileIndex: 51
      m_TileSpriteIndex: 51
      m_TileMatrixIndex: 0
      m_TileColorIndex: 0
      m_ObjectToInstantiate: {fileID: 0}
      m_TileFlags: 1
      m_ColliderType: 1
  - first: {x: -3, y: -5, z: 0}
    second:
      m_TileIndex: 41
      m_TileSpriteIndex: 41
      m_TileMatrixIndex: 0
      m_TileColorIndex: 0
      m_ObjectToInstantiate: {fileID: 0}
      m_TileFlags: 1
      m_ColliderType: 1
  - first: {x: -2, y: -5, z: 0}
    second:
      m_TileIndex: 42
      m_TileSpriteIndex: 42
      m_TileMatrixIndex: 0
      m_TileColorIndex: 0
      m_ObjectToInstantiate: {fileID: 0}
      m_TileFlags: 1
      m_ColliderType: 1
  - first: {x: -1, y: -5, z: 0}
    second:
      m_TileIndex: 43
      m_TileSpriteIndex: 43
      m_TileMatrixIndex: 0
      m_TileColorIndex: 0
      m_ObjectToInstantiate: {fileID: 0}
      m_TileFlags: 1
      m_ColliderType: 1
  - first: {x: 0, y: -5, z: 0}
    second:
      m_TileIndex: 44
      m_TileSpriteIndex: 44
      m_TileMatrixIndex: 0
      m_TileColorIndex: 0
      m_ObjectToInstantiate: {fileID: 0}
      m_TileFlags: 1
      m_ColliderType: 1
  - first: {x: 1, y: -5, z: 0}
    second:
      m_TileIndex: 45
      m_TileSpriteIndex: 45
      m_TileMatrixIndex: 0
      m_TileColorIndex: 0
      m_ObjectToInstantiate: {fileID: 0}
      m_TileFlags: 1
      m_ColliderType: 1
  - first: {x: 4, y: -5, z: 0}
    second:
      m_TileIndex: 46
      m_TileSpriteIndex: 46
      m_TileMatrixIndex: 0
      m_TileColorIndex: 0
      m_ObjectToInstantiate: {fileID: 0}
      m_TileFlags: 1
      m_ColliderType: 1
  - first: {x: 5, y: -5, z: 0}
    second:
      m_TileIndex: 47
      m_TileSpriteIndex: 47
      m_TileMatrixIndex: 0
      m_TileColorIndex: 0
      m_ObjectToInstantiate: {fileID: 0}
      m_TileFlags: 1
      m_ColliderType: 1
  - first: {x: -3, y: -4, z: 0}
    second:
      m_TileIndex: 32
      m_TileSpriteIndex: 32
      m_TileMatrixIndex: 0
      m_TileColorIndex: 0
      m_ObjectToInstantiate: {fileID: 0}
      m_TileFlags: 1
      m_ColliderType: 1
  - first: {x: -2, y: -4, z: 0}
    second:
      m_TileIndex: 33
      m_TileSpriteIndex: 33
      m_TileMatrixIndex: 0
      m_TileColorIndex: 0
      m_ObjectToInstantiate: {fileID: 0}
      m_TileFlags: 1
      m_ColliderType: 1
  - first: {x: -1, y: -4, z: 0}
    second:
      m_TileIndex: 34
      m_TileSpriteIndex: 34
      m_TileMatrixIndex: 0
      m_TileColorIndex: 0
      m_ObjectToInstantiate: {fileID: 0}
      m_TileFlags: 1
      m_ColliderType: 1
  - first: {x: 0, y: -4, z: 0}
    second:
      m_TileIndex: 35
      m_TileSpriteIndex: 35
      m_TileMatrixIndex: 0
      m_TileColorIndex: 0
      m_ObjectToInstantiate: {fileID: 0}
      m_TileFlags: 1
      m_ColliderType: 1
  - first: {x: 1, y: -4, z: 0}
    second:
      m_TileIndex: 36
      m_TileSpriteIndex: 36
      m_TileMatrixIndex: 0
      m_TileColorIndex: 0
      m_ObjectToInstantiate: {fileID: 0}
      m_TileFlags: 1
      m_ColliderType: 1
  - first: {x: 2, y: -4, z: 0}
    second:
      m_TileIndex: 37
      m_TileSpriteIndex: 37
      m_TileMatrixIndex: 0
      m_TileColorIndex: 0
      m_ObjectToInstantiate: {fileID: 0}
      m_TileFlags: 1
      m_ColliderType: 1
  - first: {x: 3, y: -4, z: 0}
    second:
      m_TileIndex: 38
      m_TileSpriteIndex: 38
      m_TileMatrixIndex: 0
      m_TileColorIndex: 0
      m_ObjectToInstantiate: {fileID: 0}
      m_TileFlags: 1
      m_ColliderType: 1
  - first: {x: 4, y: -4, z: 0}
    second:
      m_TileIndex: 39
      m_TileSpriteIndex: 39
      m_TileMatrixIndex: 0
      m_TileColorIndex: 0
      m_ObjectToInstantiate: {fileID: 0}
      m_TileFlags: 1
      m_ColliderType: 1
  - first: {x: 5, y: -4, z: 0}
    second:
      m_TileIndex: 40
      m_TileSpriteIndex: 40
      m_TileMatrixIndex: 0
      m_TileColorIndex: 0
      m_ObjectToInstantiate: {fileID: 0}
      m_TileFlags: 1
      m_ColliderType: 1
  - first: {x: -3, y: -3, z: 0}
    second:
      m_TileIndex: 25
      m_TileSpriteIndex: 25
      m_TileMatrixIndex: 0
      m_TileColorIndex: 0
      m_ObjectToInstantiate: {fileID: 0}
      m_TileFlags: 1
      m_ColliderType: 1
  - first: {x: -2, y: -3, z: 0}
    second:
      m_TileIndex: 26
      m_TileSpriteIndex: 26
      m_TileMatrixIndex: 0
      m_TileColorIndex: 0
      m_ObjectToInstantiate: {fileID: 0}
      m_TileFlags: 1
      m_ColliderType: 1
  - first: {x: -1, y: -3, z: 0}
    second:
      m_TileIndex: 27
      m_TileSpriteIndex: 27
      m_TileMatrixIndex: 0
      m_TileColorIndex: 0
      m_ObjectToInstantiate: {fileID: 0}
      m_TileFlags: 1
      m_ColliderType: 1
  - first: {x: 1, y: -3, z: 0}
    second:
      m_TileIndex: 28
      m_TileSpriteIndex: 28
      m_TileMatrixIndex: 0
      m_TileColorIndex: 0
      m_ObjectToInstantiate: {fileID: 0}
      m_TileFlags: 1
      m_ColliderType: 1
  - first: {x: 2, y: -3, z: 0}
    second:
      m_TileIndex: 29
      m_TileSpriteIndex: 29
      m_TileMatrixIndex: 0
      m_TileColorIndex: 0
      m_ObjectToInstantiate: {fileID: 0}
      m_TileFlags: 1
      m_ColliderType: 1
  - first: {x: 3, y: -3, z: 0}
    second:
      m_TileIndex: 30
      m_TileSpriteIndex: 30
      m_TileMatrixIndex: 0
      m_TileColorIndex: 0
      m_ObjectToInstantiate: {fileID: 0}
      m_TileFlags: 1
      m_ColliderType: 1
  - first: {x: 4, y: -3, z: 0}
    second:
      m_TileIndex: 31
      m_TileSpriteIndex: 31
      m_TileMatrixIndex: 0
      m_TileColorIndex: 0
      m_ObjectToInstantiate: {fileID: 0}
      m_TileFlags: 1
      m_ColliderType: 1
  - first: {x: -3, y: -2, z: 0}
    second:
      m_TileIndex: 19
      m_TileSpriteIndex: 19
      m_TileMatrixIndex: 0
      m_TileColorIndex: 0
      m_ObjectToInstantiate: {fileID: 0}
      m_TileFlags: 1
      m_ColliderType: 1
  - first: {x: -2, y: -2, z: 0}
    second:
      m_TileIndex: 20
      m_TileSpriteIndex: 20
      m_TileMatrixIndex: 0
      m_TileColorIndex: 0
      m_ObjectToInstantiate: {fileID: 0}
      m_TileFlags: 1
      m_ColliderType: 1
  - first: {x: -1, y: -2, z: 0}
    second:
      m_TileIndex: 21
      m_TileSpriteIndex: 21
      m_TileMatrixIndex: 0
      m_TileColorIndex: 0
      m_ObjectToInstantiate: {fileID: 0}
      m_TileFlags: 1
      m_ColliderType: 1
  - first: {x: 0, y: -2, z: 0}
    second:
      m_TileIndex: 22
      m_TileSpriteIndex: 22
      m_TileMatrixIndex: 0
      m_TileColorIndex: 0
      m_ObjectToInstantiate: {fileID: 0}
      m_TileFlags: 1
      m_ColliderType: 1
  - first: {x: 1, y: -2, z: 0}
    second:
      m_TileIndex: 23
      m_TileSpriteIndex: 23
      m_TileMatrixIndex: 0
      m_TileColorIndex: 0
      m_ObjectToInstantiate: {fileID: 0}
      m_TileFlags: 1
      m_ColliderType: 1
  - first: {x: 2, y: -2, z: 0}
    second:
      m_TileIndex: 24
      m_TileSpriteIndex: 24
      m_TileMatrixIndex: 0
      m_TileColorIndex: 0
      m_ObjectToInstantiate: {fileID: 0}
      m_TileFlags: 1
      m_ColliderType: 1
  - first: {x: -3, y: -1, z: 0}
    second:
      m_TileIndex: 10
      m_TileSpriteIndex: 10
      m_TileMatrixIndex: 0
      m_TileColorIndex: 0
      m_ObjectToInstantiate: {fileID: 0}
      m_TileFlags: 1
      m_ColliderType: 1
  - first: {x: -1, y: -1, z: 0}
    second:
      m_TileIndex: 11
      m_TileSpriteIndex: 11
      m_TileMatrixIndex: 0
      m_TileColorIndex: 0
      m_ObjectToInstantiate: {fileID: 0}
      m_TileFlags: 1
      m_ColliderType: 1
  - first: {x: 0, y: -1, z: 0}
    second:
      m_TileIndex: 12
      m_TileSpriteIndex: 12
      m_TileMatrixIndex: 0
      m_TileColorIndex: 0
      m_ObjectToInstantiate: {fileID: 0}
      m_TileFlags: 1
      m_ColliderType: 1
  - first: {x: 1, y: -1, z: 0}
    second:
      m_TileIndex: 13
      m_TileSpriteIndex: 13
      m_TileMatrixIndex: 0
      m_TileColorIndex: 0
      m_ObjectToInstantiate: {fileID: 0}
      m_TileFlags: 1
      m_ColliderType: 1
  - first: {x: 2, y: -1, z: 0}
    second:
      m_TileIndex: 14
      m_TileSpriteIndex: 14
      m_TileMatrixIndex: 0
      m_TileColorIndex: 0
      m_ObjectToInstantiate: {fileID: 0}
      m_TileFlags: 1
      m_ColliderType: 1
  - first: {x: 4, y: -1, z: 0}
    second:
      m_TileIndex: 15
      m_TileSpriteIndex: 15
      m_TileMatrixIndex: 0
      m_TileColorIndex: 0
      m_ObjectToInstantiate: {fileID: 0}
      m_TileFlags: 1
      m_ColliderType: 1
  - first: {x: 5, y: -1, z: 0}
    second:
      m_TileIndex: 16
      m_TileSpriteIndex: 16
      m_TileMatrixIndex: 0
      m_TileColorIndex: 0
      m_ObjectToInstantiate: {fileID: 0}
      m_TileFlags: 1
      m_ColliderType: 1
  - first: {x: 6, y: -1, z: 0}
    second:
      m_TileIndex: 17
      m_TileSpriteIndex: 17
      m_TileMatrixIndex: 0
      m_TileColorIndex: 0
      m_ObjectToInstantiate: {fileID: 0}
      m_TileFlags: 1
      m_ColliderType: 1
  - first: {x: 7, y: -1, z: 0}
    second:
      m_TileIndex: 18
      m_TileSpriteIndex: 18
      m_TileMatrixIndex: 0
      m_TileColorIndex: 0
      m_ObjectToInstantiate: {fileID: 0}
      m_TileFlags: 1
      m_ColliderType: 1
  - first: {x: -3, y: 0, z: 0}
    second:
      m_TileIndex: 0
      m_TileSpriteIndex: 0
      m_TileMatrixIndex: 0
      m_TileColorIndex: 0
      m_ObjectToInstantiate: {fileID: 0}
      m_TileFlags: 1
      m_ColliderType: 1
  - first: {x: -2, y: 0, z: 0}
    second:
      m_TileIndex: 1
      m_TileSpriteIndex: 1
      m_TileMatrixIndex: 0
      m_TileColorIndex: 0
      m_ObjectToInstantiate: {fileID: 0}
      m_TileFlags: 1
      m_ColliderType: 1
  - first: {x: -1, y: 0, z: 0}
    second:
      m_TileIndex: 2
      m_TileSpriteIndex: 2
      m_TileMatrixIndex: 0
      m_TileColorIndex: 0
      m_ObjectToInstantiate: {fileID: 0}
      m_TileFlags: 1
      m_ColliderType: 1
  - first: {x: 0, y: 0, z: 0}
    second:
      m_TileIndex: 3
      m_TileSpriteIndex: 3
      m_TileMatrixIndex: 0
      m_TileColorIndex: 0
      m_ObjectToInstantiate: {fileID: 0}
      m_TileFlags: 1
      m_ColliderType: 1
  - first: {x: 1, y: 0, z: 0}
    second:
      m_TileIndex: 4
      m_TileSpriteIndex: 4
      m_TileMatrixIndex: 0
      m_TileColorIndex: 0
      m_ObjectToInstantiate: {fileID: 0}
      m_TileFlags: 1
      m_ColliderType: 1
  - first: {x: 2, y: 0, z: 0}
    second:
      m_TileIndex: 5
      m_TileSpriteIndex: 5
      m_TileMatrixIndex: 0
      m_TileColorIndex: 0
      m_ObjectToInstantiate: {fileID: 0}
      m_TileFlags: 1
      m_ColliderType: 1
  - first: {x: 4, y: 0, z: 0}
    second:
      m_TileIndex: 6
      m_TileSpriteIndex: 6
      m_TileMatrixIndex: 0
      m_TileColorIndex: 0
      m_ObjectToInstantiate: {fileID: 0}
      m_TileFlags: 1
      m_ColliderType: 1
  - first: {x: 5, y: 0, z: 0}
    second:
      m_TileIndex: 7
      m_TileSpriteIndex: 7
      m_TileMatrixIndex: 0
      m_TileColorIndex: 0
      m_ObjectToInstantiate: {fileID: 0}
      m_TileFlags: 1
      m_ColliderType: 1
  - first: {x: 6, y: 0, z: 0}
    second:
      m_TileIndex: 8
      m_TileSpriteIndex: 8
      m_TileMatrixIndex: 0
      m_TileColorIndex: 0
      m_ObjectToInstantiate: {fileID: 0}
      m_TileFlags: 1
      m_ColliderType: 1
  - first: {x: 7, y: 0, z: 0}
    second:
      m_TileIndex: 9
      m_TileSpriteIndex: 9
      m_TileMatrixIndex: 0
      m_TileColorIndex: 0
      m_ObjectToInstantiate: {fileID: 0}
      m_TileFlags: 1
      m_ColliderType: 1
  m_AnimatedTiles: {}
  m_TileAssetArray:
  - m_RefCount: 1
    m_Data: {fileID: 11400000, guid: eb3c71d5952465345986f0679b870afe, type: 2}
  - m_RefCount: 1
    m_Data: {fileID: 11400000, guid: 68694cab885f2734d976f01f81a625c9, type: 2}
  - m_RefCount: 1
    m_Data: {fileID: 11400000, guid: 5d45544d408ef5a4a81a07e0d12351e8, type: 2}
  - m_RefCount: 1
    m_Data: {fileID: 11400000, guid: cabe3bade752f644bb9f6c9b50d3cb0c, type: 2}
  - m_RefCount: 1
    m_Data: {fileID: 11400000, guid: 93d29e0f1fdafd6448c5d722caa44dec, type: 2}
  - m_RefCount: 1
    m_Data: {fileID: 11400000, guid: c704c9a7c19658a41bd034dc6cf9c37c, type: 2}
  - m_RefCount: 1
    m_Data: {fileID: 11400000, guid: d7821967fc54f3845ba410e69520a76c, type: 2}
  - m_RefCount: 1
    m_Data: {fileID: 11400000, guid: 2459660b24fb95c48a1f3494ed70c113, type: 2}
  - m_RefCount: 1
    m_Data: {fileID: 11400000, guid: 1c8f178affd602642bbd92c42c31efb7, type: 2}
  - m_RefCount: 1
    m_Data: {fileID: 11400000, guid: d301c805b92c44a4892669b2fb21265b, type: 2}
  - m_RefCount: 1
    m_Data: {fileID: 11400000, guid: 3466512e3a0f0fa47a009c345fa6247d, type: 2}
  - m_RefCount: 1
    m_Data: {fileID: 11400000, guid: 5369cab2861127e479471c471b38443d, type: 2}
  - m_RefCount: 1
    m_Data: {fileID: 11400000, guid: e3a1dcb3a70efa1499796af2b50f2f93, type: 2}
  - m_RefCount: 1
    m_Data: {fileID: 11400000, guid: a28a65b83287c27438c2888f9315d1a4, type: 2}
  - m_RefCount: 1
    m_Data: {fileID: 11400000, guid: be33f140f62107342b574826f1fdc727, type: 2}
  - m_RefCount: 1
    m_Data: {fileID: 11400000, guid: a0ecfd704778cb844bf2e9bc8e95e8da, type: 2}
  - m_RefCount: 1
    m_Data: {fileID: 11400000, guid: d8552352e937d2a419a73ab599be4f08, type: 2}
  - m_RefCount: 1
    m_Data: {fileID: 11400000, guid: e39caea6339ecb2459f81f277fcab49c, type: 2}
  - m_RefCount: 1
    m_Data: {fileID: 11400000, guid: 9a562f7167fd17e4283f0ff2842860e5, type: 2}
  - m_RefCount: 1
    m_Data: {fileID: 11400000, guid: a9d9e95d86ab9194cb8132a796f8c50f, type: 2}
  - m_RefCount: 1
    m_Data: {fileID: 11400000, guid: 32f7e9b16ff41214597c81355774cc89, type: 2}
  - m_RefCount: 1
    m_Data: {fileID: 11400000, guid: d7b469f37a46d804e9d9562da1cc4ad5, type: 2}
  - m_RefCount: 1
    m_Data: {fileID: 11400000, guid: 2b49adf6a901da847892880accaf3986, type: 2}
  - m_RefCount: 1
    m_Data: {fileID: 11400000, guid: d25d57cd2f9c2ef43bd8f423c1f26456, type: 2}
  - m_RefCount: 1
    m_Data: {fileID: 11400000, guid: f24fffebcc0fcd84e81e41d35d803092, type: 2}
  - m_RefCount: 1
    m_Data: {fileID: 11400000, guid: 995ee47362cea734da188cf4c668d1a8, type: 2}
  - m_RefCount: 1
    m_Data: {fileID: 11400000, guid: a4f4c93c5e5e4054592a107e195d2d15, type: 2}
  - m_RefCount: 1
    m_Data: {fileID: 11400000, guid: 0801f7ed9f3edf744bc5808a321baa56, type: 2}
  - m_RefCount: 1
    m_Data: {fileID: 11400000, guid: 68a06017b9f61ac45b11e58147c8ee53, type: 2}
  - m_RefCount: 1
    m_Data: {fileID: 11400000, guid: db8945d2e1162b747be4c0dec021f1ba, type: 2}
  - m_RefCount: 1
    m_Data: {fileID: 11400000, guid: ceb2955ae41eaba4a9efb16b653f3657, type: 2}
  - m_RefCount: 1
    m_Data: {fileID: 11400000, guid: 8f883d8635729694dbf59be2d4277790, type: 2}
  - m_RefCount: 1
    m_Data: {fileID: 11400000, guid: b0014020b54630f429301e0748faf167, type: 2}
  - m_RefCount: 1
    m_Data: {fileID: 11400000, guid: 499d9b144fd69c54785baa5e72d3b467, type: 2}
  - m_RefCount: 1
    m_Data: {fileID: 11400000, guid: 0412aa7be4b91914abe6f0304184e3e4, type: 2}
  - m_RefCount: 1
    m_Data: {fileID: 11400000, guid: 55a96796f1fdc2f4ebe821e3fe67662e, type: 2}
  - m_RefCount: 1
    m_Data: {fileID: 11400000, guid: b79cdfb02111c8140ab31d4527ad4c6e, type: 2}
  - m_RefCount: 1
    m_Data: {fileID: 11400000, guid: 221cab32f451b4d49b42905eba435fed, type: 2}
  - m_RefCount: 1
    m_Data: {fileID: 11400000, guid: c931be3add5429e469f9eedcfeccf42a, type: 2}
  - m_RefCount: 1
    m_Data: {fileID: 11400000, guid: b725e03d6534ba3468f4a6f807950d4d, type: 2}
  - m_RefCount: 1
    m_Data: {fileID: 11400000, guid: cf3e20cae85f98a4bb743366044581b0, type: 2}
  - m_RefCount: 1
    m_Data: {fileID: 11400000, guid: 5e8b3e2aae827b5429d8591b5c19d058, type: 2}
  - m_RefCount: 1
    m_Data: {fileID: 11400000, guid: 16b1b47ef8ad0ba41bcc57407e8f0dda, type: 2}
  - m_RefCount: 1
    m_Data: {fileID: 11400000, guid: 8ec21c32920aa9a44a4c6c4b69e16aaa, type: 2}
  - m_RefCount: 1
    m_Data: {fileID: 11400000, guid: c11511f2bc574d842b1db52150ba4228, type: 2}
  - m_RefCount: 1
    m_Data: {fileID: 11400000, guid: 3dd8c583cc868874783c691653e212a6, type: 2}
  - m_RefCount: 1
    m_Data: {fileID: 11400000, guid: b47175afa10424945961afb5f86ecec4, type: 2}
  - m_RefCount: 1
    m_Data: {fileID: 11400000, guid: 05e37e5a041f6f542aff73122182bb51, type: 2}
  - m_RefCount: 1
    m_Data: {fileID: 11400000, guid: a3f5d9b4aa7d95b4b8a4b62426a53f23, type: 2}
  - m_RefCount: 1
    m_Data: {fileID: 11400000, guid: cabb883f75292e94cb06d30cb71e8606, type: 2}
  - m_RefCount: 1
    m_Data: {fileID: 11400000, guid: 1c4885e4892e0994c8fc9602573e9a8c, type: 2}
  - m_RefCount: 1
    m_Data: {fileID: 11400000, guid: 5e2cbf86312909f4eab8fbb9716df6dd, type: 2}
  - m_RefCount: 1
    m_Data: {fileID: 11400000, guid: a75eabd1d00247f4ba79fb0cf1506a0d, type: 2}
  - m_RefCount: 1
    m_Data: {fileID: 11400000, guid: 8fd257feaf41fde4b9881a37cd76e803, type: 2}
  - m_RefCount: 1
    m_Data: {fileID: 11400000, guid: 7946f3f97acb69c4cac738f7ea1a574a, type: 2}
  - m_RefCount: 1
    m_Data: {fileID: 11400000, guid: 067d436c5fba0fb489d44403195fd978, type: 2}
  - m_RefCount: 1
    m_Data: {fileID: 11400000, guid: 786c60024b748564abbfb58287c380cc, type: 2}
  - m_RefCount: 1
    m_Data: {fileID: 11400000, guid: 806040711f295a049b2623d319d61453, type: 2}
  - m_RefCount: 1
    m_Data: {fileID: 11400000, guid: d06ba2e1edb4739458594c7f0acf5f0f, type: 2}
  - m_RefCount: 1
    m_Data: {fileID: 11400000, guid: 22ad66c0dff24b348b5f997d99119831, type: 2}
  - m_RefCount: 1
    m_Data: {fileID: 11400000, guid: cac33b7c94acd4d468dace4cb59130d7, type: 2}
  - m_RefCount: 1
    m_Data: {fileID: 11400000, guid: 2f12c5e9cae911e46a60478a9007f8a9, type: 2}
  - m_RefCount: 1
    m_Data: {fileID: 11400000, guid: c694033857cbcff42b38ebfc4dbaaf6b, type: 2}
  - m_RefCount: 1
    m_Data: {fileID: 11400000, guid: c9dc6149d3238c14d8eaddef0533e4fa, type: 2}
  - m_RefCount: 1
    m_Data: {fileID: 11400000, guid: ab893cd813e56b24c94acbcaf3c54c94, type: 2}
  - m_RefCount: 1
    m_Data: {fileID: 11400000, guid: 091a49e4b8ad2a44197393260ea2e8e5, type: 2}
  - m_RefCount: 1
    m_Data: {fileID: 11400000, guid: 818dd1e1e4d1de5428d2173079877b94, type: 2}
  - m_RefCount: 1
    m_Data: {fileID: 11400000, guid: f99bbdde40516db4b81329dfae0c4965, type: 2}
  - m_RefCount: 1
    m_Data: {fileID: 11400000, guid: c38b1d78d6118cc43b5a4d120691861c, type: 2}
  m_TileSpriteArray:
  - m_RefCount: 1
    m_Data: {fileID: 21300000, guid: 4f0cf21518b415242b15f781ccb8a4d5, type: 3}
  - m_RefCount: 1
    m_Data: {fileID: 21300002, guid: 4f0cf21518b415242b15f781ccb8a4d5, type: 3}
  - m_RefCount: 1
    m_Data: {fileID: 21300004, guid: 4f0cf21518b415242b15f781ccb8a4d5, type: 3}
  - m_RefCount: 1
    m_Data: {fileID: 21300006, guid: 4f0cf21518b415242b15f781ccb8a4d5, type: 3}
  - m_RefCount: 1
    m_Data: {fileID: 21300008, guid: 4f0cf21518b415242b15f781ccb8a4d5, type: 3}
  - m_RefCount: 1
    m_Data: {fileID: 21300010, guid: 4f0cf21518b415242b15f781ccb8a4d5, type: 3}
  - m_RefCount: 1
    m_Data: {fileID: 21300012, guid: 4f0cf21518b415242b15f781ccb8a4d5, type: 3}
  - m_RefCount: 1
    m_Data: {fileID: 21300014, guid: 4f0cf21518b415242b15f781ccb8a4d5, type: 3}
  - m_RefCount: 1
    m_Data: {fileID: 21300016, guid: 4f0cf21518b415242b15f781ccb8a4d5, type: 3}
  - m_RefCount: 1
    m_Data: {fileID: 21300018, guid: 4f0cf21518b415242b15f781ccb8a4d5, type: 3}
  - m_RefCount: 1
    m_Data: {fileID: 21300020, guid: 4f0cf21518b415242b15f781ccb8a4d5, type: 3}
  - m_RefCount: 1
    m_Data: {fileID: 21300022, guid: 4f0cf21518b415242b15f781ccb8a4d5, type: 3}
  - m_RefCount: 1
    m_Data: {fileID: 21300024, guid: 4f0cf21518b415242b15f781ccb8a4d5, type: 3}
  - m_RefCount: 1
    m_Data: {fileID: 21300026, guid: 4f0cf21518b415242b15f781ccb8a4d5, type: 3}
  - m_RefCount: 1
    m_Data: {fileID: 21300028, guid: 4f0cf21518b415242b15f781ccb8a4d5, type: 3}
  - m_RefCount: 1
    m_Data: {fileID: 21300030, guid: 4f0cf21518b415242b15f781ccb8a4d5, type: 3}
  - m_RefCount: 1
    m_Data: {fileID: 21300032, guid: 4f0cf21518b415242b15f781ccb8a4d5, type: 3}
  - m_RefCount: 1
    m_Data: {fileID: 21300034, guid: 4f0cf21518b415242b15f781ccb8a4d5, type: 3}
  - m_RefCount: 1
    m_Data: {fileID: 21300036, guid: 4f0cf21518b415242b15f781ccb8a4d5, type: 3}
  - m_RefCount: 1
    m_Data: {fileID: 21300038, guid: 4f0cf21518b415242b15f781ccb8a4d5, type: 3}
  - m_RefCount: 1
    m_Data: {fileID: 21300040, guid: 4f0cf21518b415242b15f781ccb8a4d5, type: 3}
  - m_RefCount: 1
    m_Data: {fileID: 21300042, guid: 4f0cf21518b415242b15f781ccb8a4d5, type: 3}
  - m_RefCount: 1
    m_Data: {fileID: 21300044, guid: 4f0cf21518b415242b15f781ccb8a4d5, type: 3}
  - m_RefCount: 1
    m_Data: {fileID: 21300046, guid: 4f0cf21518b415242b15f781ccb8a4d5, type: 3}
  - m_RefCount: 1
    m_Data: {fileID: 21300048, guid: 4f0cf21518b415242b15f781ccb8a4d5, type: 3}
  - m_RefCount: 1
    m_Data: {fileID: 21300050, guid: 4f0cf21518b415242b15f781ccb8a4d5, type: 3}
  - m_RefCount: 1
    m_Data: {fileID: 21300052, guid: 4f0cf21518b415242b15f781ccb8a4d5, type: 3}
  - m_RefCount: 1
    m_Data: {fileID: 21300054, guid: 4f0cf21518b415242b15f781ccb8a4d5, type: 3}
  - m_RefCount: 1
    m_Data: {fileID: 21300056, guid: 4f0cf21518b415242b15f781ccb8a4d5, type: 3}
  - m_RefCount: 1
    m_Data: {fileID: 21300058, guid: 4f0cf21518b415242b15f781ccb8a4d5, type: 3}
  - m_RefCount: 1
    m_Data: {fileID: 21300060, guid: 4f0cf21518b415242b15f781ccb8a4d5, type: 3}
  - m_RefCount: 1
    m_Data: {fileID: 21300062, guid: 4f0cf21518b415242b15f781ccb8a4d5, type: 3}
  - m_RefCount: 1
    m_Data: {fileID: 21300064, guid: 4f0cf21518b415242b15f781ccb8a4d5, type: 3}
  - m_RefCount: 1
    m_Data: {fileID: 21300066, guid: 4f0cf21518b415242b15f781ccb8a4d5, type: 3}
  - m_RefCount: 1
    m_Data: {fileID: 21300068, guid: 4f0cf21518b415242b15f781ccb8a4d5, type: 3}
  - m_RefCount: 1
    m_Data: {fileID: 21300070, guid: 4f0cf21518b415242b15f781ccb8a4d5, type: 3}
  - m_RefCount: 1
    m_Data: {fileID: 21300072, guid: 4f0cf21518b415242b15f781ccb8a4d5, type: 3}
  - m_RefCount: 1
    m_Data: {fileID: 21300074, guid: 4f0cf21518b415242b15f781ccb8a4d5, type: 3}
  - m_RefCount: 1
    m_Data: {fileID: 21300076, guid: 4f0cf21518b415242b15f781ccb8a4d5, type: 3}
  - m_RefCount: 1
    m_Data: {fileID: 21300078, guid: 4f0cf21518b415242b15f781ccb8a4d5, type: 3}
  - m_RefCount: 1
    m_Data: {fileID: 21300080, guid: 4f0cf21518b415242b15f781ccb8a4d5, type: 3}
  - m_RefCount: 1
    m_Data: {fileID: 21300082, guid: 4f0cf21518b415242b15f781ccb8a4d5, type: 3}
  - m_RefCount: 1
    m_Data: {fileID: 21300084, guid: 4f0cf21518b415242b15f781ccb8a4d5, type: 3}
  - m_RefCount: 1
    m_Data: {fileID: 21300086, guid: 4f0cf21518b415242b15f781ccb8a4d5, type: 3}
  - m_RefCount: 1
    m_Data: {fileID: 21300088, guid: 4f0cf21518b415242b15f781ccb8a4d5, type: 3}
  - m_RefCount: 1
    m_Data: {fileID: 21300090, guid: 4f0cf21518b415242b15f781ccb8a4d5, type: 3}
  - m_RefCount: 1
    m_Data: {fileID: 21300092, guid: 4f0cf21518b415242b15f781ccb8a4d5, type: 3}
  - m_RefCount: 1
    m_Data: {fileID: 21300094, guid: 4f0cf21518b415242b15f781ccb8a4d5, type: 3}
  - m_RefCount: 1
    m_Data: {fileID: 21300096, guid: 4f0cf21518b415242b15f781ccb8a4d5, type: 3}
  - m_RefCount: 1
    m_Data: {fileID: 21300098, guid: 4f0cf21518b415242b15f781ccb8a4d5, type: 3}
  - m_RefCount: 1
    m_Data: {fileID: 21300100, guid: 4f0cf21518b415242b15f781ccb8a4d5, type: 3}
  - m_RefCount: 1
    m_Data: {fileID: 21300102, guid: 4f0cf21518b415242b15f781ccb8a4d5, type: 3}
  - m_RefCount: 1
    m_Data: {fileID: 21300104, guid: 4f0cf21518b415242b15f781ccb8a4d5, type: 3}
  - m_RefCount: 1
    m_Data: {fileID: 21300106, guid: 4f0cf21518b415242b15f781ccb8a4d5, type: 3}
  - m_RefCount: 1
    m_Data: {fileID: 21300108, guid: 4f0cf21518b415242b15f781ccb8a4d5, type: 3}
  - m_RefCount: 1
    m_Data: {fileID: 21300110, guid: 4f0cf21518b415242b15f781ccb8a4d5, type: 3}
  - m_RefCount: 1
    m_Data: {fileID: 21300112, guid: 4f0cf21518b415242b15f781ccb8a4d5, type: 3}
  - m_RefCount: 1
    m_Data: {fileID: 21300114, guid: 4f0cf21518b415242b15f781ccb8a4d5, type: 3}
  - m_RefCount: 1
    m_Data: {fileID: 21300116, guid: 4f0cf21518b415242b15f781ccb8a4d5, type: 3}
  - m_RefCount: 1
    m_Data: {fileID: 21300118, guid: 4f0cf21518b415242b15f781ccb8a4d5, type: 3}
  - m_RefCount: 1
    m_Data: {fileID: 21300120, guid: 4f0cf21518b415242b15f781ccb8a4d5, type: 3}
  - m_RefCount: 1
    m_Data: {fileID: 21300122, guid: 4f0cf21518b415242b15f781ccb8a4d5, type: 3}
  - m_RefCount: 1
    m_Data: {fileID: 21300124, guid: 4f0cf21518b415242b15f781ccb8a4d5, type: 3}
  - m_RefCount: 1
    m_Data: {fileID: 21300126, guid: 4f0cf21518b415242b15f781ccb8a4d5, type: 3}
  - m_RefCount: 1
    m_Data: {fileID: 21300128, guid: 4f0cf21518b415242b15f781ccb8a4d5, type: 3}
  - m_RefCount: 1
    m_Data: {fileID: 21300130, guid: 4f0cf21518b415242b15f781ccb8a4d5, type: 3}
  - m_RefCount: 1
    m_Data: {fileID: 21300132, guid: 4f0cf21518b415242b15f781ccb8a4d5, type: 3}
  - m_RefCount: 1
    m_Data: {fileID: 21300134, guid: 4f0cf21518b415242b15f781ccb8a4d5, type: 3}
  - m_RefCount: 1
    m_Data: {fileID: 21300136, guid: 4f0cf21518b415242b15f781ccb8a4d5, type: 3}
  m_TileMatrixArray:
  - m_RefCount: 69
    m_Data:
      e00: 1
      e01: 0
      e02: 0
      e03: 0
      e10: 0
      e11: 1
      e12: 0
      e13: 0
      e20: 0
      e21: 0
      e22: 1
      e23: 0
      e30: 0
      e31: 0
      e32: 0
      e33: 1
  m_TileColorArray:
  - m_RefCount: 69
    m_Data: {r: 1, g: 1, b: 1, a: 1}
  m_AnimationFrameRate: 1
  m_Color: {r: 1, g: 1, b: 1, a: 1}
  m_Origin: {x: -3, y: -9, z: 0}
  m_Size: {x: 11, y: 10, z: 1}
  m_TileAnchor: {x: 0.5, y: 0.5, z: 0}
  m_TileOrientation: 0
  m_TileOrientationMatrix:
    e00: 1
    e01: 0
    e02: 0
    e03: 0
    e10: 0
    e11: 1
    e12: 0
    e13: 0
    e20: 0
    e21: 0
    e22: 1
    e23: 0
    e30: 0
    e31: 0
    e32: 0
    e33: 1
